[2020-11-18 12:25:57] /informeIncidencia/imprimir.php?oidcultivo=14$fecha=29/10/2020 
[2020-11-18 12:25:57] Error al recoger los socios ->SQLSTATE[22P02]: Invalid text representation: 7 ERROR:  la sintaxis de entrada no es válida para integer: «14$fecha=29/10/2020» 
[2020-11-18 12:25:57] Error tras la consulta -> No se obtuvieron datos de socios con el cultivo ->14$fecha=29/10/2020 y fecha ->-- 
[2020-11-18 12:26:06] /informeIncidencia/imprimir.php?oidcultivo=14&fecha=29/10/2020 
[2020-11-18 13:08:47] /informeIncidencia/imprimir.php?oidcultivo=14&fecha=29/10/2020 
[2020-11-18 13:08:47] Error tras la consulta -> No se obtuvieron datos de socios con el cultivo ->14 y fecha -> 
[2020-11-18 13:09:15] /informeIncidencia/imprimir.php?oidcultivo=14&fecha=29/10/2020 
[2020-11-18 13:09:15] Error tras la consulta -> No se obtuvieron datos de socios con el cultivo ->14 y fecha -> 
[2020-11-18 13:09:55] /informeIncidencia/imprimir.php?oidcultivo=14&fecha=29/10/2020 
[2020-11-18 13:09:56] Error al recoger los controles ->SQLSTATE[HY093]: Invalid parameter number: :oidcultivo 
[2020-11-18 13:09:56] Error tras la consulta -> No se obtuvieron datos de controles para el albaran AC21000062 
[2020-11-18 13:09:56] Error al recoger los controles ->SQLSTATE[HY093]: Invalid parameter number: :oidcultivo 
[2020-11-18 13:09:56] Error tras la consulta -> No se obtuvieron datos de controles para el albaran AC21000064 
[2020-11-18 13:09:56] Error al recoger los controles ->SQLSTATE[HY093]: Invalid parameter number: :oidcultivo 
[2020-11-18 13:09:56] Error tras la consulta -> No se obtuvieron datos de controles para el albaran AC21000065 
[2020-11-18 13:09:56] Error al recoger los controles ->SQLSTATE[HY093]: Invalid parameter number: :oidcultivo 
[2020-11-18 13:09:56] Error tras la consulta -> No se obtuvieron datos de controles para el albaran AC21000061 
[2020-11-18 13:09:56] Error al recoger los controles ->SQLSTATE[HY093]: Invalid parameter number: :oidcultivo 
[2020-11-18 13:09:56] Error tras la consulta -> No se obtuvieron datos de controles para el albaran AC21000063 
[2020-11-18 13:10:19] /informeIncidencia/imprimir.php?oidcultivo=14&fecha=29/10/2020 
[2020-11-18 13:10:19] Error al recoger los controles ->SQLSTATE[42703]: Undefined column: 7 ERROR:  no existe la columna c.oidcultivo
LINE 27:                 and c.oidcultivo = $3
                             ^ 
[2020-11-18 13:10:19] Error tras la consulta -> No se obtuvieron datos de controles para el albaran AC21000062 
[2020-11-18 13:10:19] Error al recoger los controles ->SQLSTATE[42703]: Undefined column: 7 ERROR:  no existe la columna c.oidcultivo
LINE 27:                 and c.oidcultivo = $3
                             ^ 
[2020-11-18 13:10:19] Error tras la consulta -> No se obtuvieron datos de controles para el albaran AC21000064 
[2020-11-18 13:10:19] Error al recoger los controles ->SQLSTATE[42703]: Undefined column: 7 ERROR:  no existe la columna c.oidcultivo
LINE 27:                 and c.oidcultivo = $3
                             ^ 
[2020-11-18 13:10:19] Error tras la consulta -> No se obtuvieron datos de controles para el albaran AC21000065 
[2020-11-18 13:10:19] Error al recoger los controles ->SQLSTATE[42703]: Undefined column: 7 ERROR:  no existe la columna c.oidcultivo
LINE 27:                 and c.oidcultivo = $3
                             ^ 
[2020-11-18 13:10:19] Error tras la consulta -> No se obtuvieron datos de controles para el albaran AC21000061 
[2020-11-18 13:10:19] Error al recoger los controles ->SQLSTATE[42703]: Undefined column: 7 ERROR:  no existe la columna c.oidcultivo
LINE 27:                 and c.oidcultivo = $3
                             ^ 
[2020-11-18 13:10:19] Error tras la consulta -> No se obtuvieron datos de controles para el albaran AC21000063 
[2020-11-18 13:11:25] /informeIncidencia/imprimir.php?oidcultivo=14&fecha=29/10/2020 
[2020-11-18 13:28:15] /informeIncidencia/imprimir.php?oidcultivo=14&fecha=29/10/2020 
[2020-11-18 13:28:25] /informeIncidencia/imprimir.php?oidcultivo=14&fecha=29/10/2020 
[2020-11-18 13:28:25] Error tras la consulta -> No se obtuvieron datos de socios con el cultivo -> y fecha -> 
[2020-11-18 13:33:06] /informeIncidencia/imprimir.php?oidcultivo=14&fecha=29/10/2020 
[2020-11-18 14:09:09] /informeIncidencia/imprimir.php?oidcultivo=14&oidformato=-1&oidvariedad=-1&oidsocio=-1&fecha1=29/10/2020&fecha2=29/10/2020&esfecharecepcion=0 
[2020-11-18 14:09:09] Error al recoger los socios ->SQLSTATE[22007]: Invalid datetime format: 7 ERROR:  la sintaxis de entrada no es válida para tipo date: «--» 
[2020-11-18 14:09:09] Error tras la consulta -> No se obtuvieron datos de socios con el cultivo ->14 y fecha -> 
[2020-11-18 17:32:36] /informeIncidencia/imprimir.php?oidcultivo=-1&oidformato=-1&oidvariedad=-1&oidsocio=-1&fecha1=29/10/2020&fecha2=29/10/2020&esfecharecepcion=0 
[2020-11-18 18:15:36] /informeIncidencia/imprimir.php?oidcultivo=-1&oidformato=-1&oidvariedad=-1&oidsocio=-1&fecha1=29/10/2020&fecha2=29/10/2020&esfecharecepcion=0 
[2020-11-18 18:16:15] /informeIncidencia/imprimir.php?oidcultivo=-1&oidformato=-1&oidvariedad=-1&oidsocio=-1&fecha1=29/10/2020&fecha2=29/10/2020&esfecharecepcion=0 
[2020-11-18 18:17:43] /informeIncidencia/imprimir.php?oidcultivo=14&oidformato=-1&oidvariedad=210&oidsocio=-1&fecha1=29/10/2020&fecha2=29/10/2020&esfecharecepcion=0 
[2020-11-18 18:19:33] /informeIncidencia/imprimir.php?oidcultivo=14&oidformato=-1&oidvariedad=210&oidsocio=-1&fecha1=29/10/2020&fecha2=29/10/2020&esfecharecepcion=0 
[2020-11-18 18:19:33] Error al recoger los controles ->SQLSTATE[22007]: Invalid datetime format: 7 ERROR:  la sintaxis de entrada no es válida para tipo date: «{{fecha_ini}}»
LINE 4:             where date(fecha) >= '{{fecha_ini}}' and date(fe...
                                         ^ 
[2020-11-18 18:21:01] /informeIncidencia/imprimir.php?oidcultivo=14&oidformato=-1&oidvariedad=210&oidsocio=-1&fecha1=29/10/2020&fecha2=29/10/2020&esfecharecepcion=0 
[2020-11-18 18:21:28] /informeIncidencia/imprimir.php?oidcultivo=14&oidformato=-1&oidvariedad=210&oidsocio=-1&fecha1=29/10/2020&fecha2=29/10/2020&esfecharecepcion=0 
[2020-11-18 18:21:42] /informeIncidencia/imprimir.php?oidcultivo=14&oidformato=-1&oidvariedad=210&oidsocio=-1&fecha1=29/10/2020&fecha2=29/10/2020&esfecharecepcion=0 
[2020-11-18 18:22:13] /informeIncidencia/imprimir.php?oidcultivo=14&oidformato=-1&oidvariedad=210&oidsocio=-1&fecha1=29/10/2020&fecha2=29/10/2020&esfecharecepcion=0 
[2020-11-18 18:23:18] /informeIncidencia/imprimir.php?oidcultivo=14&oidformato=-1&oidvariedad=210&oidsocio=-1&fecha1=29/10/2020&fecha2=29/10/2020&esfecharecepcion=1 
[2020-11-18 18:23:35] /informeIncidencia/imprimir.php?oidcultivo=14&oidformato=-1&oidvariedad=210&oidsocio=-1&fecha1=28/10/2020&fecha2=28/10/2020&esfecharecepcion=1 
[2020-11-18 18:23:54] /informeIncidencia/imprimir.php?oidcultivo=14&oidformato=-1&oidvariedad=210&oidsocio=-1&fecha1=27/10/2020&fecha2=27/10/2020&esfecharecepcion=1 
[2020-11-18 18:24:26] /informeIncidencia/imprimir.php?oidcultivo=14&oidformato=-1&oidvariedad=210&oidsocio=-1&fecha1=01/10/2020&fecha2=31/12/2020&esfecharecepcion=0 
[2020-11-18 18:25:25] /informeIncidencia/imprimir.php?oidcultivo=14&oidformato=-1&oidvariedad=210&oidsocio=-1&fecha1=23/10/2020&fecha2=10/12/2020&esfecharecepcion=1 
