[2021-01-07 11:42:17] /informeIncidencia/imprimir.php?oidcultivo=-1&oidformato=-1&oidvariedad=-1&oidsocio=150&fecha1=04/01/2021&fecha2=04/01/2021&esfecharecepcion=0&oidalbaran=0 
[2021-01-07 11:42:17] Error tras la consulta -> No se obtuvieron datos de controles para el albaran 'AC21001163' 
[2021-01-07 12:40:21] /informeIncidencia/imprimir.php?oidcultivo=-1&oidformato=-1&oidvariedad=-1&oidsocio=150&fecha1=04/01/2021&fecha2=04/01/2021&esfecharecepcion=0&oidalbaran=0 
[2021-01-07 12:40:21] Error tras la consulta -> No se obtuvieron datos de controles para el albaran 'AC21001163' 
[2021-01-07 12:43:18] /informeIncidencia/imprimir.php?oidcultivo=-1&oidformato=-1&oidvariedad=-1&oidsocio=150&fecha1=04/01/2021&fecha2=04/01/2021&esfecharecepcion=0&oidalbaran=0 
[2021-01-07 12:43:19] Error tras la consulta -> No se obtuvieron datos de controles para el albaran 'AC21001163' 
[2021-01-07 12:59:58] /informeIncidencia/imprimir.php?oidcultivo=-1&oidformato=-1&oidvariedad=-1&oidsocio=150&fecha1=04/01/2021&fecha2=04/01/2021&esfecharecepcion=0&oidalbaran=0 
[2021-01-07 13:00:52] /informeIncidencia/imprimir.php?oidcultivo=-1&oidformato=-1&oidvariedad=-1&oidsocio=-1&fecha1=04/01/2021&fecha2=04/01/2021&esfecharecepcion=0&oidalbaran=1198 
[2021-01-07 13:00:52] Error tras la consulta -> No se obtuvieron datos de socios con fecha entre->04/01/2021 y 04/01/2021 
[2021-01-07 13:15:15] /informeIncidencia/imprimir.php?oidcultivo=-1&oidformato=-1&oidvariedad=-1&oidsocio=-1&fecha1=04/01/2021&fecha2=04/01/2021&esfecharecepcion=0&oidalbaran=1198 
[2021-01-07 13:15:15] Error tras la consulta -> No se obtuvieron datos de socios con fecha entre->04/01/2021 y 04/01/2021 
[2021-01-07 13:15:53] /informeIncidencia/imprimir.php?oidcultivo=-1&oidformato=-1&oidvariedad=-1&oidsocio=-1&fecha1=04/01/2021&fecha2=04/01/2021&esfecharecepcion=0&oidalbaran=1198 
[2021-01-07 13:16:47] /informeIncidencia/imprimir.php?oidcultivo=-1&oidformato=-1&oidvariedad=-1&oidsocio=-1&fecha1=04/01/2021&fecha2=04/01/2021&esfecharecepcion=0&oidalbaran=1163 
[2021-01-07 13:21:24] /informeIncidencia/imprimir.php?oidcultivo=-1&oidformato=-1&oidvariedad=-1&oidsocio=110&fecha1=05/01/2021&fecha2=05/01/2021&esfecharecepcion=0&oidalbaran=0 
[2021-01-07 13:21:24] Error tras la consulta -> No se obtuvieron datos de socios con fecha entre->05/01/2021 y 05/01/2021 
[2021-01-07 13:21:50] /informeIncidencia/imprimir.php?oidcultivo=-1&oidformato=-1&oidvariedad=-1&oidsocio=110&fecha1=04/01/2021&fecha2=04/01/2021&esfecharecepcion=0&oidalbaran=0 
[2021-01-07 13:28:37] /informeIncidencia/imprimir.php?oidcultivo=1&oidformato=1004&oidvariedad=-1&oidsocio=-1&fecha1=04/01/2021&fecha2=04/01/2021&esfecharecepcion=0&oidalbaran=0 
[2021-01-07 13:33:57] /informeIncidencia/imprimir.php?oidcultivo=1&oidformato=1004&oidvariedad=-1&oidsocio=-1&fecha1=04/01/2021&fecha2=04/01/2021&esfecharecepcion=0&oidalbaran=0 
[2021-01-07 13:33:58] Error tras la consulta -> No se obtuvieron datos de controles para el albaran 'AC21001163' 
[2021-01-07 13:34:09] /informeIncidencia/imprimir.php?oidcultivo=1&oidformato=1004&oidvariedad=-1&oidsocio=-1&fecha1=04/01/2021&fecha2=04/01/2021&esfecharecepcion=0&oidalbaran=0 
[2021-01-07 13:34:09] Error tras la consulta -> No se obtuvieron datos de controles para el albaran 'AC21001163' 
